(footprint "padtest"
	(version 20240108)
	(generator "kicad-footprint-generator")
	(layer "F.Cu")
	(attr smd)
	(pad "42" smd roundrect
		(at 0 0)
		(size 2 2)
		(layers "F.Cu")
		(roundrect_rratio 0.25)
		(chamfer_ratio 0.25)
		(chamfer bottom_left)
	)
)
